^C:\USERS\HP\SOURCE\REPOS\WEBSERVER\DEBUG\PCH.OBJ|C:\USERS\HP\SOURCE\REPOS\WEBSERVER\DEBUG\WEBSERVER.OBJ
/OUT:"C:\USERS\HP\SOURCE\REPOS\WEBSERVER\DEBUG\WEBSERVER.EXE" /INCREMENTAL /NOLOGO WS2_32.LIB KERNEL32.LIB USER32.LIB GDI32.LIB WINSPOOL.LIB COMDLG32.LIB ADVAPI32.LIB SHELL32.LIB OLE32.LIB OLEAUT32.LIB UUID.LIB ODBC32.LIB ODBCCP32.LIB /MANIFEST /MANIFESTUAC:"level='asInvoker' uiAccess='false'" /manifest:embed /DEBUG:FASTLINK /PDB:"C:\USERS\HP\SOURCE\REPOS\WEBSERVER\DEBUG\WEBSERVER.PDB" /SUBSYSTEM:CONSOLE /TLBID:1 /DYNAMICBASE /NXCOMPAT /IMPLIB:"C:\USERS\HP\SOURCE\REPOS\WEBSERVER\DEBUG\WEBSERVER.LIB" /MACHINE:X86 DEBUG\PCH.OBJDEBUG\WEBSERVER.OBJ
^C:\USERS\AMIN\DOCUMENTS\WEBSERVER\DEBUG\PCH.OBJ|C:\USERS\AMIN\DOCUMENTS\WEBSERVER\DEBUG\WEBSERVER.OBJ
/OUT:"C:\USERS\AMIN\DOCUMENTS\WEBSERVER\DEBUG\WEBSERVER.EXE" /INCREMENTAL /NOLOGO WS2_32.LIB KERNEL32.LIB USER32.LIB GDI32.LIB WINSPOOL.LIB COMDLG32.LIB ADVAPI32.LIB SHELL32.LIB OLE32.LIB OLEAUT32.LIB UUID.LIB ODBC32.LIB ODBCCP32.LIB /MANIFEST /MANIFESTUAC:"level='asInvoker' uiAccess='false'" /manifest:embed /DEBUG:FASTLINK /PDB:"C:\USERS\AMIN\DOCUMENTS\WEBSERVER\DEBUG\WEBSERVER.PDB" /SUBSYSTEM:CONSOLE /TLBID:1 /DYNAMICBASE /NXCOMPAT /IMPLIB:"C:\USERS\AMIN\DOCUMENTS\WEBSERVER\DEBUG\WEBSERVER.LIB" /MACHINE:X86 DEBUG\PCH.OBJ
DEBUG\WEBSERVER.OBJ
